{
  "input_sequences": [],
  "inputs": [
    {
      "name": "node_0",
      "variables": [
        {
          "name": "d0",
          "offset": 0,
          "scale": 1
        },
        {
          "name": "d0significance",
          "offset": 0,
          "scale": 1
        },
        {
          "name": "trans_TRTPID",
          "offset": 0,
          "scale": 1
        },
        {
          "name": "EoverP",
          "offset": 0,
          "scale": 1
        },
        {
          "name": "dPOverP",
          "offset": 0,
          "scale": 1
        },
        {
          "name": "deltaEta1",
          "offset": 0,
          "scale": 1
        },
        {
          "name": "deltaPhiRescaled2",
          "offset": 0,
          "scale": 1
        },
        {
          "name": "nPixHitsPlusDeadSensors",
          "offset": 0,
          "scale": 1
        },
        {
          "name": "nSCTHitsPlusDeadSensors",
          "offset": 0,
          "scale": 1
        },
        {
          "name": "Rhad1",
          "offset": 0,
          "scale": 1
        },
        {
          "name": "Rhad",
          "offset": 0,
          "scale": 1
        },
        {
          "name": "f1",
          "offset": 0,
          "scale": 1
        },
        {
          "name": "f3",
          "offset": 0,
          "scale": 1
        },
        {
          "name": "weta2",
          "offset": 0,
          "scale": 1
        },
        {
          "name": "Rphi",
          "offset": 0,
          "scale": 1
        },
        {
          "name": "Reta",
          "offset": 0,
          "scale": 1
        },
        {
          "name": "Eratio",
          "offset": 0,
          "scale": 1
        },
        {
          "name": "wtots1",
          "offset": 0,
          "scale": 1
        },
        {
          "name": "et",
          "offset": 0,
          "scale": 1
        },
        {
          "name": "eta",
          "offset": 0,
          "scale": 1
        }
      ]
    }
  ],
  "outputs": [
    {
      "labels": [
        "Signal",
        "CF",
        "PC",
        "HF",
        "LFeg",
        "LFh"
      ],
      "name": "OutputLayer_0"
    }
  ]
}
